{
  "images" : [
    {
      "idiom" : "universal",
      "filename" : "Gran-pantalla-LCD-Digital-Autom-tico-brazo-completo-electr-nico-autom-tico-Presi-n-arterial-Monitores.jpg_640x640.png",
      "scale" : "1x"
    },
    {
      "idiom" : "universal",
      "scale" : "2x"
    },
    {
      "idiom" : "universal",
      "scale" : "3x"
    }
  ],
  "info" : {
    "version" : 1,
    "author" : "xcode"
  }
}